{
  "showRoles": true,
  "portraits": [
    {
      "role": "president",
      "name": "Sonja Merkle",
      "description": {
        "de": "Mit Sonja Merkle haben wir eine Präsidentin gefunden, die eine Bilderbuch-Karriere im AMIV hingelegt hat. Aus der Maschinenbau-Hochburg Stuttgart angereist, positionierte sich Sonja schon in der ersten Woche als helles Sternchen am AMIV Eventhimmel. Ob Ersti-Weekend, Sushinight oder sAMIVchlaus, Sonja war bei jeder Hundsverlocheten dabei. Es verging kaum Zeit, bis Sonja selbst bei der Organisation von Events mithalf. Und so munkelt man nun, dass wegen der vielen von ihr organisierten Beerpong-Turniere, es keine Instanz an der ETH gibt, die die Regeln besser kennt als sie. Nebenbei erwähnt, stammt das legendäre Leberschuss-Turnier aus Sonja’s talentierter Feder! \nEs war eine Frage der Zeit bis Sonja ihren Weg in den Vorstand fand. Und so leitete sie mit gewohnter Leidenschaft und Professionalität den Infoposten. Den AMIV auf Social Media zu vertreten ist das Eine, aber den AMIV generell zu vertreten das Andere. Und so erklimmt Sonja nun die letzte Stufe der AMIV-Karriereleiter. \nMit Sonja hat der AMIV eine Präsidentin mit Charisma, Weitblick, Leidenschaft und Kompetenz gefunden. Ganz geschweige vom ansteckenden Tatendrang – es gibt einen Grund, weshalb ihre Catchphrase: «More passion! More energy! More footwork!» mindestens so bekannt ist wie sie. \nFalls ihr Sonja gerne kennenlernen wollt, aber euch noch kein Smalltalk-Thema eingefallen ist, dann fragt sie einfach, was sie heute um Fünf Uhr in der Früh gemacht hat. Vermutlich hat sie auf dem Weg ins Bÿro, mit ihrem neuen Rennvelo gerade das Matterhorn erklommen oder vierzehn mal den Bodensee überquert – Da gibt’s auf jeden Fall einiges, was sie euch auf ihrem Strava-Account zeigen kann.",
        "en": "With Sonja Merkle, we have found a president who has had a picture-perfect career within AMIV. Having come from the engineering hub of Stuttgart, Sonja positioned herself as a bright star in the AMIV event scene during her very first week. Whether it was the First-semester-Weekend, Sushi Night, or the Samivchlaus event, Sonja was involved in every gathering. It didn't take long before she started helping with organizing events herself. Rumor has it that because of the many beer pong tournaments she organized, there is no one at ETH who knows the rules better than she does. By the way, the legendary \"Leberschuss Tournament\" originated from Sonja’s creative brilliance! \nIt was only a matter of time before Sonja found her way onto the board. She led the Information officer role with her usual passion and professionalism. Representing AMIV on social media is one thing, but representing AMIV in general is another. And now, Sonja is reaching the final step of the AMIV career ladder. \nWith Sonja, AMIV has found a president with charisma, vision, passion, and competence. Not to mention her infectious drive—there’s a reason why her catchphrase, \"More passion! More energy! More footwork!\" is almost as famous as she is. \nIf you'd like to get to know Sonja but haven’t thought of a topic for small talk, just ask her what she was doing at five in the morning today. Chances are she was climbing the Matterhorn on her new racing bike or crossed Lake Constance fourteen times on her way to the office—there's definitely a lot she can show you on her Strava account."
      }
    }
  
  ]
}
