{
  "showRoles": true,
  "portraits": [
    {
      "role": "quaestor",
      "name": "Jakob Lüdke",
      "description": {
        "de": "Zu seinen größten Erfolgen im Studium zählt Jakob die Siege beim AMIV - Pokerturnier und am Leberschuss Turnier am Skiwochenende. Mit seinen mindestens 10 Jahren auf dem Buckel  ist er eines der ältesten Mitglieder des Vorstands, was ihn keineswegs weniger aktiv macht. Hinter sich gebracht hat er eine spannende Pracht an Sportarten, zu denen gehören: Handball, Rugby, Schwimmen, Fussball und primär auch Volleyball. Doch bei Basketball geht es ihm gleich wie bei Berndeutsch, von der Seitenlinie  stur lächeln und winken. \nLeute, die ihm nahe stehen, würden ihn stichpunktartig wahrscheinlich als talentiert, anziehend und märchenhaft charmant beschreiben. Denn ein kleiner Charmeur ist Jakob ja auch, denn in Deutsch, Englisch, Spanisch, ein klein wenig Französisch und Latein (angemerkt eine tote Sprache), weiss er sein Glück zu versuchen. Mit dem neuen Vorstandsposten wird er zukünftig sicherlich auch schweizerdeutsch zu seinem Repertoir zählen. \nNeben den vielen Aktivitäten hat Jakob auch Interesse an Gedankensport, als eifriger Schachspieler ist er allen immer ein Zug voraus in Diskussionen. Dies merkt der alte Vorstand alltäglich bei dem Versuch, sich während einer ausgedehnten Mittagspause über seine Essenswahl lustig zu machen. Als kluges Köpfchen bietet er Johny die Stirn und wird wissen, mit Excel-Files umzugehen, daher auch ein guter Quästor sein.",
        "en": "One of Jakob's greatest achievements during his studies includes winning the AMIV poker tournament and the \"Leberschuss\" tournament at the ski weekend. With at least 10 years under his belt, he is one of the oldest members of the board, which in no way makes him less active. He has tackled an impressive range of sports, including handball, rugby, swimming, football, and primarily volleyball. However, when it comes to basketball, it's the same for him as with Bernese German: just smile and wave from the sidelines. \nThose close to him would likely describe him as talented, attractive, and charmingly charismatic. After all, Jakob is a bit of a charmer, as he knows how to try his luck in German, English, Spanish, a little bit of French, and Latin (noting it's a dead language). With his new position on the board, Swiss German will surely soon be part of his repertoire. \nIn addition to all his activities, Jakob also has an interest in intellectual sports. As an enthusiastic chess player, he is always one move ahead of everyone in discussions. The previous board experiences this every day when they try to poke fun at his food choices during an extended lunch break. As a clever mind, he holds his own against Johnny and will know how to handle Excel files, making him a good treasurer."
      }
    }
  
  ]
}
