{
  "showRoles": true,
  "portraits": [
    {
      "role": "it",
      "name": "Johannes Zumthurm, Vice-President",
      "description": {
        "de": "Johannes ist in Luzern aufgewachsen und hat nach dem Gymi eine ambitionierte Militärkarriere hingelegt und ist bis zum Leutnant aufgestiegen. \nIrgendwann hat es ihn dann doch noch von der Infanterie zur Elektrotechnik getrieben und so ist er dann an der ETH und beim AMIV gelandet. \nSein Einstieg in die AMIV-IT fand er bereits im zweiten Semester, als er mit nahezu keinem Vorwissen am Coding Weekend teilnahm, welches er seither regelmäßig besucht. Er kann schon auf zwei erfolgreiche Semester als IT Vorstand zurückblicken und tritt nun bereits seine dritte Amtszeit an, somit ist er aus dem aktuellen Vorstand bereits am längsten tätig. \nNeben den AMIV-Servern verwaltet er auch einige eigene Server, welche er bei sich zuhause betreibt. Johannes trägt die berüchtigte IT-Aura mit sich, was dazu führt, dass fehlerhafte Geräte häufig alleine durch seine Anwesenheit plötzlich wieder funktionieren. Beim Coden lässt er sich gerne durch Koffein in der Form von Mate oder Kaffee unterstützen.",
        "en": "Johannes grew up in Lucerne and spent quite some time in the military after graduating from school where he made it to the rank of Lieutenant. Sooner or later, his interests drove him towards electrical engineering and that's how he ended up at ETH and therefore AMIV. \nHe found his introduction to the AMIV-IT by already taking part in the coding weekend in his second semester, which he regularly partakes in ever since. Despite having very little previous knowledge, he quickly established himself as part of the AMIV IT team and soon enough found himself part of the board. He already spent two semesters as part of the AMIV board and is therefore the longest lasting member of the current board. \nBesides the AMIV servers he also manages his own set of servers, which he operates at home. \nJohannes carries the infamous IT-aura with him which often causes faulty devices to spontaneously resume their functionality even if he just approaches them. When coding he likes to be supported by caffeine in various different forms such as mate or coffee."
      }
    }
  
  ]
}
