{
  "showRoles": true,
  "portraits": [
    {
      "role": "universityPolicyItet",
      "name": "Maximilian Hoh",
      "description": {
        "de": "Max stammt ursprünglich aus München. Bevor es ihn an die ETH zog, machte er eine Lehre als Elektroniker. Sozusagen als Brückenkurs für den Elektrotechnik-Studiengang. Mittlerweile ist er schon im dritten Jahr seines Studiums; der Brückenkurs scheint also funktioniert zu haben. Ihn interessieren neben Leiterplatten und Sudokus Programmieren auch Elektroautos. Wenn er dann endlich mal nicht mehr freiwillig für den AMIV knechtet, plant er, sich einen kleinen, schnellen E-BMW zu kaufen - ganz wie man es von einem umweltbewussten Münchener erwarten kann. Wenn er mal nicht an der ETH anzutreffen ist, dann wohl am ehesten in einem Gym des ASVZ (Akademischer Schwitzer Verband Zürich). Alternativ trifft man ihn auch auf der Laufstrecke seines Vertrauens. Welche das ist, dürft ihr ihn gerne selbst fragen.",
        "en": "Max is originally from Munich. Before he was drawn to ETH, he did an apprenticeship as an electronics technician. As a bridge course for the electrical engineering program, so to speak. He is now in the third year of his studies, so the bridging course seems to have worked. In addition to circuit boards and Sudoku programming, he is also interested in electric cars. When he finally stops volunteering for the AMIV, he plans to buy a small, fast E-BMW. Just as you would expect from an environmentally conscious Munich resident. \nWhen he's not at the ETH, he's most likely to be found in an ASVZ (Akademischer Schwitzer Verband Zürich) gym. Alternatively, he can also be found on his favorite running track. You are welcome to ask him which one that is."
      }
    }
  
  ]
}
