{
  "name": "blitz",
  "contact": [
    {
      "icon": "website",
      "label": {
        "_": "blitz.ethz.ch"
      },
      "url": "https://blitz.ethz.ch"
    },
    {
      "icon": "instagram",
      "label": {
        "_": "Instagram: blitz_amiv"
      },
      "url": "https://www.instagram.com/blitz_amiv/"
    },
    {
      "icon": "email",
      "label": {
        "_": "info@blitz.ethz.ch"
      },
      "url": "mailto:info@blitz.ethz.ch"
    }
  ],
  "description": {
    "en": "The amiv commission named blitz publishes the magazine of the student’s association of the same name every second week. Therein you find interesting articles about current events, information around mechanical engineering and electrical engineering, riddles and much more.\n\nWe are always looking for students who write articles, create riddles, help distribute the blitz or help otherwise. You can contribute one-time, in irregular time intervals or join our team. Do you feel appealed to? Write us an email to praesident@blitz.ethz.ch. Weare  looking forward to getting to know you!",
    "de": "Die amiv Kommission blitz gibt alle zwei Wochen die gleichnamige Fachvereinszeitschrift heraus. In dieser findet ihr interessante Artikel zu aktuellen Ereignissen, Informationen rund um Maschinenbau und Elektrotechnik, Rätsel und vieles mehr.\n\nWir suchen immer Studierende, die Artikel schreiben, Rätsel entwerfen, helfen den blitz zu verteilen oder sonst wie mithelfen. Du kannst einmalig oder unregelmässig etwas beitragen oder gerne auch bei uns im Team mitmachen. Du fühlst dich angesprochen? Dann schreib uns eine E-Mail an praesident@blitz.ethz.ch. Wir freuen uns darauf, dich kennenzulernen!"
  }
}
