{
  "name": "EESTEC",
  "contact": [
    {
      "icon": "website",
      "label": {
        "_": "eestec.ethz.ch"
      },
      "url": "https://eestec.ethz.ch"
    },
    {
      "icon": "email",
      "label": {
        "_": "contact@eestec.ethz.ch"
      },
      "url": "mailto:contact@eestec.ethz.ch"
    }
  ],
  "description": {
    "en": "EESTEC, the \"Electrical Engineering STudents’ European assoCiation\", spans over 40 European universities in more than 20 countries! Being both a commission of AMIV and a branch of EESTEC International, EESTEC LC Zurich not only organises shorter local events but also week-long international events!\n\n Do you want to travel, meet people from different cultures, and improve yourself – while keeping everything low-cost? Or do you want to help organise memorable events here in Zurich while having the time of your life? Check out our website, send us an e-mail or drop by our Member Meetings!",
    "de": "EESTEC, die “Electrical Engineering STudents’ European assoCiation”, ist vertreten an über 40 Universitäten in mehr als 20 Ländern! Als Kommission des AMIVs und Teil von EESTEC International organisiert EESTEC LC Zurich nicht nur lokale Events, sondern auch bis zu einwöchige internationale Events!\n\n Willst du reisen, Leute aus unterschiedlichen Kulturen und dich selber besser kennenlernen – und das Ganze zum Studierendenpreis? Oder willst du mithelfen, unvergessliche Events hier in Zürich zu organisieren und währenddessen dem Studienalltag entfliehen? Dann schau auf unsere Webseite, schreib uns eine E-Mail oder komm an einem unserer Member Meetings vorbei!"
  }
}
