{
  "name": "LIMES",
  "contact": [
    {
      "icon": "website",
      "label": {
        "en": "LIMES Website",
        "de": "LIMES Webseite"
      },
      "url": "https://www.limes.ethz.ch/"
    },
    {
      "icon": "email",
      "label": {
        "_": "limes@amiv.ethz.ch"
      },
      "url": "mailto:limes@amiv.ethz.ch"
    },
    {
      "icon": "instagram",
      "label": {
        "_": "limes.eth"
      },
      "url": "https://www.instagram.com/limes.eth/"
    },
    {
      "icon": "linkedin",
      "label": {
        "_": "limes-eth"
      },
      "url": "https://www.linkedin.com/company/limes-eth/"
    }
  ],
  "description": {
    "en": "LIMES is AMIV’s committee for women, non-binary, inter- and transgender people. We aim to empower women and other minorities in the engineering fields by connecting students with one another and with industry professionals. Additionally, we seek to inspire high school students to pursue technical career paths in order to close the gender gap in tech.\n\nInterested? Becoming a part of LIMES is easy! Simply join a meeting to learn more, or reach out to our president: limes-president@amiv.ethz.ch",
    "de": "LIMES ist das AMIV-Komitee für Frauen, Nichtbinäre, Inter- und Transgender-Personen. Unser Ziel ist es, Frauen und andere Minderheiten in den Ingenieurwissenschaften zu stärken, indem wir Studierende miteinander und mit der Industrie vernetzen. Zusätzlich möchten wir junge Frauen* inspirieren, technische Karrierewege einzuschlagen, um die Geschlechterlücke in der Technologiebranche zu schliessen.\n\nInteressiert? Teil vom LIMES zu werden ist leicht! Nimm einfach an einer Sitzung teil, um mehr zu erfahren, oder wende dich an unsere Präsidentin: limes-president@amiv.ethz.ch"
  }
}
