{
  "name": "Kontakt",
  "contact": [
    {
      "icon": "website",
      "label": {
        "_": "kontakt.amiv.ethz.ch"
      },
      "url": "https://kontakt.amiv.ethz.ch"
    },
    {
      "icon": "email",
      "label": {
        "_": "kontaktmesse@amiv.ethz.ch"
      },
      "url": "mailto:kontaktmesse@amiv.ethz.ch"
    }
  ],
  "description": {
    "en": "The Kontakt comission is responsible for organising all aspects of the annual AMIV Kontakt job fair.\n\nContact with companies, catering, PR, controlling, the responsibilities are varied, and everybody can find his/her place.",
    "de": "Die Kommission Kontakt ist für die Organisation der jährlichen Firmenmesse verantwortlich.\n\nCatering, Public Relations, Finanzen, Kontakt zu Firmenvertretern – hier ist für jeden etwas dabei."
  }
}
