{
  "title": {
    "de": "Tote-Bag",
    "en": "Tote-Bag"
  },
  "description": {
    "de": "Hol dir deinen AMIV-Tote-Bag und sei beim Einkaufen und im Alltag der/die Trendigste!",
    "en": "Get your AMIV tote bag and be the trendiest in shopping and everyday life!"
  },
  "price": "2 CHF"
}
