{
  "title": {
    "de": "T-Shirt",
    "en": "T-Shirt"
  },
  "description": {
    "de": "Der Sommer ruft! Mit dem T-shirt verdrehst du alle Köpfe auf dem Campus ;)",
    "en": "Summer is calling! You'll turn heads on campus with this t-shirt ;)"
  },
  "price": "8 CHF",
  "sizes": ["S", "M", "X", "XL"],
  "colors": {
    "de": ["Bordeaux", "Grün", "Grau"],
    "en": ["Bordeaux", "Green", "Gray"]
  }
}
