{
  "content": {
    "de": "Weitere nützliche Tipps findet man auch auf der [VSETH Willkommensseite](https://vseth.ethz.ch/angebot/neu-an-der-eth/).",
    "en": "You can find more useful tips on the [VSETH welcome page](https://vseth.ethz.ch/angebot/neu-an-der-eth/)."
  }
}