{
  "slug": "3-tips-for-students-from-abroad",
  "title": {
    "de": "Tipps für Studierende aus dem Ausland",
    "en": "Tips for Students from abroad"
  },
  "subitems": [
    {
      "slug": "3-insurance",
      "title": {
        "de": "Versicherung",
        "en": "Insurance"
      },
      "content": {
        "de": "Wenn ihr bei euren Eltern mitversichert seid, könnt ihr ansuchen, dass euch die Versicherungspflicht erlassen wird (EU/EFTA)\nhttps://www.ethz.ch/de/studium/international-einreise-aufenthalt/krankenversicherung.html"
      }
    },
    {
      "slug": "3-registration-at-district-office",
      "title": {
        "de": "Anmeldung bei Kreisamt",
        "en": "Registration at district office"
      },
      "content": {
        "de": "Am Kreisamt müsst ihr euch mit einigen Dokumenten anmelden und eure Aufenthaltserlaubnis beantragen, das kostet meist CHF 70 (je nach Kreis und Kanton), erkundigt euch vorher welche Dokumente man mitbringen muss (Mietvertrag, Inskriptionsbestätigung etc.) Manchmal muss man sein Einkommen nachweisen, Stipendienbescheinigung oder Brief der Eltern, dass sie euch mit mindestens dem geforderten Betrag unterstützen, mitnehmen."
      }
    },
    {
      "slug": "3-bank-account",
      "title": {
        "de": "Bankkonto",
        "en": "Bank Account"
      },
      "content": {
        "de": "Viele Banken haben extra Kontos für Studierende, einige haben auch ein besonderes Angebot, man braucht meist eine Immatrikulationsbescheinigung und die Anmeldung vom Kreisamt (UBS Bonuspunkte, ZKB Nachtzuschlag für Öffis…)"
      }
    },
    {
      "slug": "3-bank-transfer",
      "title": {
        "de": "Überweisungen",
        "en": "Bank Transfers"
      },
      "content": {
        "de": "Je nach Bank gibt es bei Überweisungen nicht so gute Wechselkurse, fragt nach und seht euch auch Services wie Transferwise an."
      }
    },
    {
      "slug": "3-driving-license",
      "title": {
        "de": "Führerschein",
        "en": "Driving License"
      },
      "content": {
        "de": "Muss man innerhalb des 1. Jahres in einen schweizer Führerschein umwandeln, falls ihr vorhabt hier Auto zu fahren, erkundigt euch."
      }
    }
  ]
}
