{
  "members": [
    {
      "role": "president",
      "name": "Alex Popert"
    },
    {
      "role": "quaestor",
      "name": "Steffen Schmidt"
    },
    {
      "role": "it",
      "name": "Fabin Bosch"
    },
    {
      "role": "information",
      "name": "Linus Marty"
    },
    {
      "role": "eventPlanning",
      "name": "Cosima Du Parquier"
    },
    {
      "role": "eventPlanning",
      "name": "Alen Mujkanovic"
    },
    {
      "role": "universityPolicyItet",
      "name": "Timon Ruban"
    },
    {
      "role": "universityPolicyMavt",
      "name": "David Vogt"
    },
    {
      "role": "externalRelations",
      "name": "Maximilian Babor"
    },
    {
      "role": "externalRelations",
      "name": "Beat Hörmann"
    },
    {
      "role": "infrastructure",
      "name": "Roger Wallimann"
    }
  ]
}
