{
  "members": [
    {
      "role": "president",
      "name": "Oliver Schneider"
    },
    {
      "role": "quaestor",
      "name": "Jonas Kühne"
    },
    {
      "role": "it",
      "name": "Marco Eppenberger"
    },
    {
      "role": "information",
      "name": "Stefan Mach"
    },
    {
      "role": "eventPlanning",
      "name": "Cliff Li"
    },
    {
      "role": "eventPlanning",
      "name": "Gianna Paulin"
    },
    {
      "role": "universityPolicyItet",
      "name": "Joy Schuurmans Stekhoven"
    },
    {
      "role": "universityPolicyMavt",
      "name": "Alice Mylaeus"
    },
    {
      "role": "externalRelations",
      "name": "Kay Wacker"
    },
    {
      "role": "externalRelations",
      "name": "Alexander Ens"
    },
    {
      "role": "infrastructure",
      "name": "Moritz Schneider"
    }
  ]
}
