{
  "members": [
    {
      "role": "president",
      "name": "Aurel Neff"
    },
    {
      "role": "quaestor",
      "name": "Patrick Wintermeyer"
    },
    {
      "role": "it",
      "name": "Sandro Lutz"
    },
    {
      "role": "information",
      "name": "Mathis Dedial"
    },
    {
      "role": "eventPlanning",
      "name": "Kira Erb"
    },
    {
      "role": "eventPlanning",
      "name": "Lina Gehri"
    },
    {
      "role": "universityPolicyItet",
      "name": "Tino Gfrörer"
    },
    {
      "role": "universityPolicyMavt",
      "name": "Johannes Schretter"
    },
    {
      "role": "externalRelations",
      "name": "Silvio Geel"
    },
    {
      "role": "externalRelations",
      "name": "Shuaixin Qi"
    },
    {
      "role": "infrastructure",
      "name": "Antonia Mosberger"
    }
  ]
}
