{
  "members": [
    {
      "role": "president",
      "name": "Luca Dahle"
    },
    {
      "role": "quaestor",
      "name": "Lea Kotthoff"
    },
    {
      "role": "it",
      "name": "Luzian Bieri"
    },
    {
      "role": "information",
      "name": "Francesca Burlini"
    },
    {
      "role": "eventPlanning",
      "name": "Max Aspect"
    },
    {
      "role": "eventPlanning",
      "name": "Alexandra Lyons"
    },
    {
      "role": "eventPlanning",
      "name": "Pelayo Garcia"
    },
    {
      "role": "universityPolicyItet",
      "name": "Markus Niese"
    },
    {
      "role": "universityPolicyMavt",
      "name": "Fabian Neumüller"
    },
    {
      "role": "externalRelations",
      "name": "Leon Hinderling"
    },
    {
      "role": "externalRelations",
      "name": "Svenja Ruth"
    },
    {
      "role": "infrastructure",
      "name": "Nicholas Doerk"
    }
  ]
}
