{
  "members": [
    {
      "role": "president",
      "name": "Julie Nussbaumer"
    },
    {
      "role": "quaestor",
      "name": "Konstantin Miola"
    },
    {
      "role": "it",
      "name": "Johannes Zumthurm"
    },
    {
      "role": "it",
      "name": "Clemens Walter"
    },
    {
      "role": "information",
      "name": "Martin Zahariev"
    },
    {
      "role": "eventPlanning",
      "name": "Jonathan Jelenik"
    },
    {
      "role": "eventPlanning",
      "name": "Jonas Lehmann"
    },
    {
      "role": "eventPlanning",
      "name": "Noah Giger"
    },
    {
      "role": "universityPolicyItet",
      "name": "Filip Cvijanović"
    },
    {
      "role": "universityPolicyMavt",
      "name": "Stefan Stefanov"
    },
    {
      "role": "externalRelations",
      "name": "Andreas Hirsch"
    },
    {
      "role": "externalRelations",
      "name": "Julien Poffet"
    },
    {
      "role": "infrastructure",
      "name": "Benedikt Horn"
    }
  ]
}
